clusters/Npunctiforme.txt-2000142-2037242.txt
clusters/Npunctiforme.txt-2874579-2942945.txt
clusters/Npunctiforme.txt-3269544-3298214.txt
clusters/Npunctiforme.txt-4806414-4824836.txt
clusters/Npunctiforme.txt-5845998-5861885.txt
clusters/transAT/Npunctiforme.txt-5845998-5866943.txt
clusters/rev-Npunctiforme.txt-469401-489941.txt
clusters/rev-Npunctiforme.txt-890802-913043.txt
clusters/rev-Npunctiforme.txt-2484054-2501867.txt
clusters/rev-Npunctiforme.txt-3425577-3475604.txt
clusters/rev-Npunctiforme.txt-4437003-4460948.txt
clusters/rev-Npunctiforme.txt-7199073-7223252.txt
